Confidence and Uncertainty
…
library(tidyverse)

The Data

The data for today is game by team summary data for every game played
from 2017 to 2019. Make sure to download the data (game_summary.Rds)
and save to your data folder!

gms<-read_rds("https://github.com/jbisbee1/DS1000_S2024/raw/main/data/game_summary.Rds")
gms

## # A tibble: 7,380 × 16
##      idGame yearSeason dateGame   idTeam nameT…¹ locat…²   tov   pts  treb  oreb
##       <dbl>      <int> <date>      <dbl> <chr>   <chr>   <dbl> <dbl> <dbl> <dbl>
##  1 21600001       2017 2016-10-25 1.61e9 Clevel… H          14   117    51    11
##  2 21600001       2017 2016-10-25 1.61e9 New Yo… A          18    88    42    13
##  3 21600002       2017 2016-10-25 1.61e9 Portla… H          12   113    34     5
##  4 21600002       2017 2016-10-25 1.61e9 Utah J… A          11   104    31     6
##  5 21600003       2017 2016-10-25 1.61e9 Golden… H          16   100    35     8
##  6 21600003       2017 2016-10-25 1.61e9 San An… A          13   129    55    21
##  7 21600004       2017 2016-10-26 1.61e9 Miami … A          10   108    52    16
##  8 21600004       2017 2016-10-26 1.61e9 Orland… H          11    96    45    15
##  9 21600005       2017 2016-10-26 1.61e9 Dallas… A          15   121    49    10
## 10 21600005       2017 2016-10-26 1.61e9 Indian… H          16   130    52     8
## # … with 7,370 more rows, 6 more variables: pctFG <dbl>, pctFT <dbl>,
## #   teamrest <dbl>, second_game <lgl>, isWin <lgl>, ft_80 <dbl>, and
## #   abbreviated variable names ¹​nameTeam, ²​locationGame
…
Now I have a dataset that is built up from a bunch of small resamples
from the data, with average turnovers for winners and losers in each
small sample. Let’s see what these look like.

gms_tov_rs

## # A tibble: 2,000 × 2
##    isWin mean_tov
##    <lgl>    <dbl>
##  1 FALSE     14.5
##  2 TRUE      13.7
##  3 FALSE     13.7
##  4 TRUE      12.8
##  5 FALSE     14.4
##  6 TRUE      12.3
##  7 FALSE     13.6
##  8 TRUE      13.2
##  9 FALSE     13.6
## 10 TRUE      11.4
## # … with 1,990 more rows
…
## [1] 53000

We have a huge dataset of 100 simulated seasons which we can now run
our analysis on. First, let’s compare free throw shooting in each
simulated season.

bsSeasons %>%
  filter(grepl('Tennessee|^Virginia',org)) %>% # Focus only on the schools of interest
  group_by(bsSeasonNumber,org) %>% # Group by the simulated season and the organization
  summarise(mean_ftp = mean(pctFT),.groups = 'drop') # Calculate average pctFT

## # A tibble: 188 × 3
##    bsSeasonNumber org       mean_ftp
##             <int> <fct>        <dbl>
##  1              1 Tennessee    0.866
##  2              1 Virginia     0.785
##  3              2 Tennessee    0.866
##  4              2 Virginia     0.799
##  5              3 Tennessee    0.816
##  6              3 Virginia     0.827
##  7              4 Tennessee    0.847
##  8              4 Virginia     0.852
##  9              5 Tennessee    0.852
## 10              5 Virginia     0.836
## # … with 178 more rows
…
But remember the question of interest – we want to calculate the
difference in free throw percentage. To do this, we can use the
spread() command to create one column for Tennessee and one
column for Virginia

bsSeasons %>%
  filter(grepl('Tennessee|^Virginia',org)) %>%
  group_by(bsSeasonNumber,org) %>%
  summarise(mean_ftp = mean(pctFT),.groups = 'drop') %>%
  spread(org,mean_ftp) # Create two columns one for each school

## # A tibble: 100 × 3
##    bsSeasonNumber Tennessee Virginia
##             <int>     <dbl>    <dbl>
##  1              1     0.866    0.785
##  2              2     0.866    0.799
##  3              3     0.816    0.827
##  4              4     0.847    0.852
##  5              5     0.852    0.836
##  6              6     0.866    0.771
##  7              7     0.861   NA    
##  8              8     0.842   NA    
##  9              9     0.863    0.836
## 10             10     0.833    0.743
## # … with 90 more rows
Interestingly, in seasons 7 and 8 we **don’t have measures of
Virginia free throw shooting! This is because we just happened not to
sample any players from Virginia in these simulated seasons! We can drop
these missing values and then use mutate() to create the
difference between Virginia and Tennessee.

bsSeasons %>%
  filter(grepl('Tennessee|^Virginia',org)) %>%
  group_by(bsSeasonNumber,org) %>%
  summarise(mean_ftp = mean(pctFT),.groups = 'drop') %>%
  spread(org,mean_ftp) %>%
  drop_na() %>% # Drop any rows with missing data in any column
  mutate(TNDiff = Tennessee - Virginia) # Calculate the difference in free throw shooting between TN and VA

## # A tibble: 88 × 4
##    bsSeasonNumber Tennessee Virginia   TNDiff
##             <int>     <dbl>    <dbl>    <dbl>
##  1              1     0.866    0.785  0.0810 
##  2              2     0.866    0.799  0.0670 
##  3              3     0.816    0.827 -0.0105 
##  4              4     0.847    0.852 -0.00525
##  5              5     0.852    0.836  0.0163 
##  6              6     0.866    0.771  0.095  
##  7              9     0.863    0.836  0.0280 
##  8             10     0.833    0.743  0.09   
##  9             11     0.839    0.878 -0.0389 
## 10             12     0.842    0.928 -0.0857 
## # … with 78 more rows
…
